.game-{
  border: 5px #5185c9 solid;
  border-radius: 5px;
  height: 200px;
  width: 800px;
  margin-top: 200px;
  margin-left: 300px;
  display: flex;
  cursor: crosshair;
  margin-top: 35px;
}
.container-{
  display: flex ;
  flex-direction: column;
}
.game-:hover{
  background: #34cabe;
  transition: all 2s ease 0s;
}

.image- {
  width: 150px;
  height: 200px;
  position: absolute;
  margin-bottom: 20px;
}

.description-{
  font-family: 'Courier New', Courier, monospace;
  margin-top: 20px;
  margin-left: 200px;
  font-size: 18px;
 
}

.dwnld-btn-{
  width: 100px;
  height: 100px;
  padding-left: 160px;
  padding-top: 50px;
  cursor: pointer;
}

.file-size- {
  font-family: 'Unbounded', cursive;
  margin-top: 160px;
  margin-left: 90px;
}








  <div class="game-mk11">
  <span class="container-mk11">
  <p class="title">
      Just Cause 3
  </p>
  <p class="description-mk11">
      Some random text <br>for description when <br>assad change it in the <br>future 
      Its a <br>Spider man Remastered game 
  </p> 
  </span>
  <img class="image-mk11" src="/ffluute/assets/mk11.jpg">
  <a href="#">
      <img class="dwnld-btn-mk11" src="/ffluute/assets/download-button.png">
  </a>
  <p class="file-size-mk11">
      110GB
  </p>

</div>